326.212 Homework 4
…
#col_sum3(df[0], mean)  

What causes the bugs?

  sapply()    . sapply()     list  output .     []   logical, numeric  character  , sapply()  list  is_num      .

Textbook 23.4.5

Problem 1. What happens if you repeat the analysis of sim2 using a model without an intercept. What happens to the model equation? What happens to the predictions?

model_matrix(sim2, y ~ x)

## # A tibble: 40 x 4
##    `(Intercept)`    xb    xc    xd
##            <dbl> <dbl> <dbl> <dbl>
##  1             1     0     0     0
##  2             1     0     0     0
##  3             1     0     0     0
##  4             1     0     0     0
##  5             1     0     0     0
##  6             1     0     0     0
##  7             1     0     0     0
##  8             1     0     0     0
##  9             1     0     0     0
## 10             1     0     0     0
## # ... with 30 more rows

model_matrix(sim2, y ~ x - 1)

## # A tibble: 40 x 4
##       xa    xb    xc    xd
##    <dbl> <dbl> <dbl> <dbl>
##  1     1     0     0     0
##  2     1     0     0     0
##  3     1     0     0     0
##  4     1     0     0     0
##  5     1     0     0     0
##  6     1     0     0     0
##  7     1     0     0     0
##  8     1     0     0     0
##  9     1     0     0     0
## 10     1     0     0     0
## # ... with 30 more rows
…
