326.212 Final Project: Part 2
…
326.212 Final Project: Part 2

2020-13483 Kim Dong Won

Part 2

Q1

data_info3<-data_info2%>%
  select(-c("Station code" : "Item code" , "Address":"Longitude", "Unit of measurement":"Very bad(Red)")) # 

data_info3

## # A tibble: 3,885,066 x 6
##    `Measurement date`  `Average value` `Instrument sta~ `Item name`
##    <dttm>                        <dbl>            <dbl> <chr>      
##  1 2017-01-01 00:00:00           0.004                0 SO2        
##  2 2017-01-01 00:00:00           0.059                0 NO2        
##  3 2017-01-01 00:00:00           1.2                  0 CO         
##  4 2017-01-01 00:00:00           0.002                0 O3         
##  5 2017-01-01 00:00:00          73                    0 PM10       
##  6 2017-01-01 00:00:00          57                    0 PM2.5      
##  7 2017-01-01 00:00:00           0.006                0 SO2        
##  8 2017-01-01 00:00:00           0.068                0 NO2        
##  9 2017-01-01 00:00:00           1.3                  0 CO         
## 10 2017-01-01 00:00:00           0.002                0 O3         
## # ... with 3,885,056 more rows, and 2 more variables: `Station
## #   name(district)` <chr>, `Pollution level` <chr>
…
# PM2.5 PM10             .

Q12

#12-1
data_info121<-data_info11%>%
  dplyr::select(c(`Measurement date`, `Station name(district)`, `Item name`, `Average value`))%>%
  rename( `District` = `Station name(district)`)%>%
  spread(`Item name`,`Average value`)%>%
  dplyr::select(-c("Measurement date","District")) 

data_info121 #   Measurement date, District, Item name, Average value     tidyr::spread()          .

## # A tibble: 643,867 x 6
##       CO   NO2    O3  PM10 PM2.5     SO2
##    <dbl> <dbl> <dbl> <dbl> <dbl>   <dbl>
##  1   0.9 0.051 0.002    81    40 0.006  
##  2   1.1 0.052 0.002    76    50 0.006  
##  3   1.2 0.062 0.002    63    49 0.006  
##  4   0.6 0.045 0.003    73    46 0.005  
##  5   1.2 0.046 0.001    63    51 0.004  
##  6   0.9 0.042 0.002    68    53 0.004  
##  7   0.8 0.04  0.002    63    48 0.005  
##  8   1.3 0.07  0.002   107    65 0.00700
##  9   1.2 0.06  0.001    67    45 0.004  
## 10   1.3 0.045 0.003    72    63 0.00700
## # ... with 643,857 more rows
…
